{
  "blocks": {
    "promo": [],
    "dropcap": [],
    "page-header": [],
    "page-footer": [],
    "sprite-png": [
      "__include"
    ],
    "sprite-svg": [],
    "btn": [],
    "page": [],
    "breadcrumbs": [],
    "form": [],
    "field-text": [],
    "logo": [],
    "pagination": [],
    "table": [],
    "testimonials": [],
    "social": [],
    "owl-carousel": [],
    "hamburger": [],
    "main-nav": [],
    "field-radio": [],
    "style-guide": [],
    "field-select": [],
    "field-checkbox": [],
    "subscription": [],
    "field-actions": [],
    "search-form": [],
    "slick-carousel": [],
    "text-block": [],
    "main-subtitle": [],
    "our-production": [],
    "section": [],
    "main-slider": [],
    "news-preview": [],
    "production-card": [],
    "news-card": [],
    "news-list": [],
    "news-item": [],
    "testimonial-card": [],
    "contacts": [],
    "map": [],
    "catalog-showcase": [],
    "showcase": [],
    "product-card": [],
    "recently-viewed": [],
    "short-card": [],
    "label": [],
    "gallery": [],
    "full-product-info": [],
    "catalog": [],
    "shopping-basket": [],
    "modal": [],
    "mobile-menu": [],
    "main-gallery": [],
    "share": [],
    "filters": [],
    "fields-group": []
  },
  "addCssBefore": [
    "../../node_modules/bootstrap-sass/assets/stylesheets/_bootstrap.scss",
    "../../node_modules/owl.carousel/dist/assets/owl.carousel.css",
    "../../node_modules/owl.carousel/dist/assets/owl.theme.default.css",
    "../../node_modules/slick-carousel/slick/slick.css",
    "./src/scss/mixins.scss",
    "./src/scss/variables.scss",
    "./src/scss/fonts.scss",
    "./src/scss/global.scss"
  ],
  "addCssAfter": [
    "./src/scss/print.scss"
  ],
  "copiedCss": [],
  "addJsBefore": [
    "./node_modules/jquery/dist/jquery.min.js",
    "./node_modules/jquery-migrate/dist/jquery-migrate.min.js",
    "./node_modules/bootstrap-sass/assets/javascripts/bootstrap/transition.js",
    "./node_modules/bootstrap-sass/assets/javascripts/bootstrap/modal.js",
    "./node_modules/svg4everybody/dist/svg4everybody.min.js",
    "./node_modules/owl.carousel/dist/owl.carousel.min.js",
    "./node_modules/slick-carousel/slick/slick.min.js"
  ],
  "addJsAfter": [
    "./src/js/script.js"
  ],
  "copiedJs": [],
  "addImages": [
    "./src/img/*.{jpg,jpeg,gif,png,svg,ico}"
  ],
  "directories": {
    "source": "./src/",
    "build": "./dist/",
    "blocksDirName": "blocks"
  }
}